Pruefung DS2 Johannes Knorr - Pruefung DS2 Johannes Knorr - Textanalyse des Heidelberger Datensatzes
…
Hier sieht man nun die einzelnen Sentimentwörter (“token”) und jeweils die negative oder positive Ausrichtung der Wörter (“neg”).

dataset_sentiment %>% 
  count(token, sort = TRUE)

# A tibble: 673 x 2
   token       n
   <chr>   <int>
 1 gut       111
 2 einfach   102
 3 besser     71
 4 klar       59
 5 leider     57
 6 genau      55
 7 richtig    51
 8 sicher     43
 9 dumm       36
10 kurz       33
# ... with 663 more rows
…
